############################### It is only front end development ##################################### 




######### REQUIREMENTS THAT YOU WANT TO RUN THIS PROJECT ############

1. proper IDE (vs code, atom, sublime text editor, bracket).
2. proper internet connection.




######### TO RUN ############

1. download or clone the repository.
2. run index.html file.




######### USED ############

1. html5
2. css3
3. javascript
4. parallaxJS
5. mansoryJS
6. google fonts





This project is done for education purpose.


